…
## Summary statistics of both files

``` r
extract.stats.dir("example data/IOW/")
```

    ## # A tibble: 45 x 8
    ##    source         parameter  Min.    `1st Qu.`  Median  Mean    `3rd Qu.` Max.  
    ##    <chr>          <chr>      <table> <table>    <table> <table> <table>   <tabl>
    ##  1 example data/… depSM         6.0…   44.37500   82.7…   82.7…  121.125…  159.…
    ##  2 example data/… prDM          5.9…   44.63716   83.3…   83.3…  122.045…  160.…
    ##  3 example data/… c0mS.cm      20.4…   20.88689   21.3…   21.8…   23.054…   23.…
    ##  4 example data/… t090C         7.8…    7.89050    8.3…    9.1…    8.574…   14.…
    ##  5 example data/… sal00        18.2…   18.64505   19.2…   19.4…   20.485…   21.…
    ##  6 example data/… sbeox0ML.L   -0.0…    0.27006    2.8…    2.9…    5.210…    6.…
    ##  7 example data/… svCM       1462.9… 1463.82000 1465.3… 1468.9… 1469.785… 1485.…
    ##  8 example data/… oxsatML.L     6.3…    7.13629    7.2…    7.1…    7.335…    7.…
    ##  9 example data/… altM          0.1…   40.21390   79.0…   76.5…  114.381…  151.…
    ## 10 example data/… spar          0.0…    0.00000    0.0…    0.0…    0.000…    0.…
    ## # … with 35 more rows
…
